{
    "name": "classic-light",
    "fontcolor": "#000000",
    "background": "#FFFFFF",
    "colors": [
        "#FF0000",
        "#00FF00",
        "#0000FF",
        "#FFAA00",
        "#FF00FF",
        "#00FFFF",
        "#000000"
    ]
}