{
    "name": "hope",
    "fontcolor": "#FFFFFF",
    "background": "#000000",
    "colors": [
        "#8D0801",
        "#004754",
        "#BF0603",
        "#F4D58D",
        "#708D81",
        "#001427"
    ]
}